<?xml version="1.0" encoding="utf-8"?>
<!-- Generator: Adobe Illustrator 22.0.1, SVG Export Plug-In . SVG Version: 6.00 Build 0)  -->
<svg version="1.1" id="Capa_1" xmlns="http://www.w3.org/2000/svg" xmlns:xlink="http://www.w3.org/1999/xlink" x="0px" y="0px"
	 viewBox="0 0 92 29.1" style="enable-background:new 0 0 92 29.1;" xml:space="preserve">
<style type="text/css">
	.st0{fill:#BF2C2C;}
	.st1{fill:#030304;}
	.st2{fill:#6DAC3B;}
	.st3{fill:#FFFFFF;}
</style>
<g>
	<path class="st0" d="M89.8,3.3c0-0.7-0.5-1.2-1.2-1.2H14v17.6l65.5,0v7.2c0,0,0,0,0,0c0,0.6,0.5,1,1,1c0.3,0,0.5-0.1,0.7-0.3l0,0
		l0,0c0,0,0,0,0,0l7.9-8.5l0,0c0.4-0.4,0.6-0.9,0.6-1.4C89.9,17.5,89.8,3.3,89.8,3.3z"/>
	<path class="st1" d="M25.8,19.7H3.7c-0.8,0-1.5-0.7-1.5-1.5V3.6c0-0.8,0.7-1.5,1.5-1.5h22.2c0.2,0,0.3,0.1,0.3,0.3v17.1
		C26.1,19.6,26,19.7,25.8,19.7z"/>
	<g id="XMLID_1362_">
		<path id="XMLID_1399_" class="st2" d="M20.7,6.2H7c-0.4,0-0.7,0.3-0.7,0.6v4V15c0,0.4,0.3,0.6,0.7,0.6l13.7,0
			c0.4,0,0.7-0.3,0.7-0.6v-4.1v-4C21.4,6.5,21.1,6.2,20.7,6.2"/>
		<g id="XMLID_1363_">
			<path id="XMLID_1398_" class="st3" d="M12.2,11.1"/>
			<path id="XMLID_1397_" class="st3" d="M18.3,11.5L18,11.1l-0.5-0.5l0.1,0c0.5-0.1,0.8-0.4,0.8-1c0-0.7-0.6-1-1.1-1h-1.1
				c0,0,0,0,0,0c0,0,0,0,0,0V9v2.1v0.4c0,0,0,0,0,0c0,0,0,0,0,0l0,0v0l0.5-0.1c0,0,0,0,0,0c0,0,0,0,0,0v-0.3v0V9.2h0.6
				c0.3,0,0.5,0.2,0.5,0.5c0,0.3-0.2,0.4-0.5,0.5c-0.3,0.1-0.4,0.3-0.4,0.5c0,0.1,0,0.3,0.2,0.4c0.1,0.1,0.1,0.2,0.2,0.2
				c0,0,0,0,0,0l0.8,0.8c0,0,0.1,0,0.2,0c0.2,0,0.3-0.1,0.3-0.3C18.4,11.6,18.4,11.5,18.3,11.5"/>
			<path id="XMLID_1396_" class="st3" d="M12.1,10.7c0,0-0.1,0-0.2,0c-0.1,0-0.2,0-0.2,0.1c0,0-0.1,0.1-0.1,0.1
				c-0.2,0.2-0.5,0.3-0.7,0.3c-0.6,0-1.1-0.5-1.1-1.1C9.9,9.4,10.4,9,11,9c0.2,0,0.5,0,0.7,0.3c0,0,0,0,0,0c0,0,0,0,0,0l0.5-0.1
				c0.1,0,0,0,0,0c-0.1-0.2-0.5-0.7-1.3-0.7C10,8.4,9.3,9.1,9.3,10c0,0.4,0.2,0.8,0.4,1.1c0.3,0.4,0.8,0.6,1.3,0.6
				c0.6,0,1-0.3,1.2-0.5c0,0,0,0,0-0.1c0,0,0-0.1,0-0.2C12.3,10.9,12.2,10.8,12.1,10.7"/>
			<path id="XMLID_1395_" class="st3" d="M15.3,8.5c-0.2,0-0.4,0.2-0.5,0.4l-0.6,1.4c0,0,0,0,0,0c0,0,0,0,0,0l-0.6-0.9v0L13.4,9
				c0,0,0,0,0,0c0,0,0,0,0,0l-0.8,0.1c0,0,0,0,0,0c0,0,0,0,0,0v0.3v1.6v0.5c0,0.2,0.1,0.3,0.3,0.3c0.2,0,0.3-0.1,0.3-0.3v-0.5V9.7
				l0.8,1.4l0.2,0.3c0,0,0,0,0,0c0,0,0,0,0,0l0.1-0.3l0.8-1.7v1.7v0.5c0,0,0,0,0,0c0,0,0,0,0,0l0,0l0.5-0.1h0c0,0,0,0,0,0
				c0,0,0,0,0,0h0v-0.5V8.9C15.7,8.7,15.5,8.5,15.3,8.5"/>
			<path id="XMLID_1391_" class="st3" d="M9.9,13.1c0,0,0-0.1,0-0.1c0,0-0.1,0-0.1,0H9.5v0.3h0.2c0,0,0.1,0,0.1,0c0,0,0,0,0.1,0
				C9.8,13.2,9.9,13.1,9.9,13.1C9.9,13.1,9.9,13.1,9.9,13.1 M9.5,12.8h0.2c0,0,0,0,0,0c0,0,0,0,0,0c0,0,0,0,0,0c0,0,0,0,0-0.1
				c0,0,0-0.1,0-0.1c0,0-0.1,0-0.1,0H9.5V12.8z M9.9,12.8C9.9,12.8,9.9,12.9,9.9,12.8c0.1,0.1,0.1,0.1,0.1,0.1c0,0,0,0,0,0.1
				c0,0,0,0,0,0.1c0,0,0,0.1,0,0.1c0,0,0,0.1-0.1,0.1c0,0-0.1,0-0.1,0.1c0,0-0.1,0-0.1,0H9.4c0,0-0.1,0-0.1,0c0,0,0,0,0-0.1v-0.8
				c0,0,0-0.1,0-0.1c0,0,0,0,0.1,0l0.3,0c0,0,0.1,0,0.1,0c0,0,0.1,0,0.1,0c0,0,0,0,0.1,0.1c0,0,0,0.1,0,0.1
				C10,12.7,10,12.7,9.9,12.8C9.9,12.8,9.9,12.8,9.9,12.8L9.9,12.8z"/>
			<path id="XMLID_1388_" class="st3" d="M10.5,13h-0.1c0,0,0,0,0,0c0,0,0,0-0.1,0c0,0,0,0,0,0c0,0,0,0,0,0.1c0,0,0,0.1,0,0.1
				c0,0,0.1,0,0.1,0h0c0,0,0,0,0,0c0,0,0,0,0,0c0,0,0,0,0,0V13z M10.7,13.3C10.7,13.3,10.7,13.3,10.7,13.3
				C10.7,13.4,10.6,13.4,10.7,13.3c-0.1,0.1-0.1,0.1-0.2,0.1c0,0-0.1,0-0.1,0c0,0,0,0-0.1,0c-0.1,0-0.1,0-0.2,0c0,0-0.1,0-0.1,0
				c0,0,0,0-0.1-0.1c0,0,0-0.1,0-0.1c0,0,0-0.1,0-0.1c0,0,0-0.1,0.1-0.1c0,0,0.1,0,0.1-0.1c0,0,0.1,0,0.1,0h0.2v0c0,0,0,0,0,0
				c0,0,0,0,0,0c0,0,0,0,0,0c0,0,0,0-0.1,0c0,0-0.1,0-0.1,0c0,0-0.1,0-0.1,0c0,0,0,0,0,0c0,0,0,0,0,0l0-0.1c0,0,0,0,0,0
				c0,0,0.1,0,0.1,0c0,0,0.1,0,0.1,0c0.1,0,0.2,0,0.2,0.1c0,0,0.1,0.1,0.1,0.2V13.3z"/>
			<path id="XMLID_1387_" class="st3" d="M11.1,12.8L11.1,12.8c-0.1,0-0.1,0-0.1,0v0.6c0,0,0,0,0,0c0,0,0,0,0,0h-0.1c0,0,0,0,0,0
				c0,0,0,0,0,0v-0.6c0,0,0-0.1,0-0.1c0,0,0,0,0.1,0c0,0,0,0,0,0c0,0,0,0,0.1,0c0,0,0,0,0.1,0h0c0.1,0,0.1,0,0.2,0
				c0,0,0.1,0,0.1,0.1c0,0,0.1,0.1,0.1,0.1c0,0,0,0.1,0,0.2v0.4c0,0,0,0,0,0c0,0,0,0,0,0h-0.1c0,0,0,0,0,0c0,0,0,0,0,0V13
				c0,0,0-0.1,0-0.1c0,0,0-0.1,0-0.1C11.2,12.8,11.2,12.8,11.1,12.8C11.2,12.8,11.1,12.8,11.1,12.8"/>
			<path id="XMLID_1386_" class="st3" d="M11.9,13.3C11.9,13.3,11.9,13.3,11.9,13.3c0.1,0,0.1,0,0.2,0c0,0,0,0,0,0c0,0,0,0,0,0
				l0,0.1c0,0,0,0,0,0c0,0-0.1,0-0.1,0c0,0-0.1,0-0.1,0c-0.1,0-0.2,0-0.2-0.1c-0.1-0.1-0.1-0.2-0.1-0.3c0-0.1,0-0.1,0-0.2
				c0,0,0-0.1,0.1-0.1c0,0,0.1-0.1,0.1-0.1c0,0,0.1,0,0.1,0c0,0,0.1,0,0.1,0c0,0,0.1,0,0.1,0c0,0,0,0,0,0c0,0,0,0,0,0l0,0.1
				c0,0,0,0,0,0c0,0,0,0,0,0c0,0,0,0-0.1,0c0,0-0.1,0-0.1,0c0,0-0.1,0-0.1,0c0,0,0,0-0.1,0.1c0,0,0,0,0,0.1c0,0,0,0.1,0,0.1
				c0,0,0,0.1,0,0.1c0,0,0,0.1,0,0.1C11.7,13.2,11.8,13.2,11.9,13.3C11.8,13.3,11.8,13.3,11.9,13.3"/>
			<path id="XMLID_1383_" class="st3" d="M12.7,13C12.7,13,12.7,12.9,12.7,13c0-0.1,0-0.2,0-0.2c0,0,0,0-0.1-0.1c0,0,0,0-0.1,0
				c0,0-0.1,0-0.1,0c0,0,0,0-0.1,0.1c0,0,0,0,0,0.1c0,0,0,0.1,0,0.1c0,0.1,0,0.1,0,0.2c0,0,0.1,0.1,0.1,0.1c0,0,0.1,0,0.1,0
				c0,0,0,0,0.1-0.1C12.6,13.2,12.6,13.1,12.7,13C12.7,13.1,12.7,13,12.7,13 M12.8,13c0,0.1,0,0.2-0.1,0.3c-0.1,0.1-0.1,0.1-0.3,0.1
				c-0.1,0-0.2,0-0.3-0.1c-0.1-0.1-0.1-0.2-0.1-0.3c0-0.1,0-0.1,0-0.2c0,0,0-0.1,0.1-0.1c0,0,0.1-0.1,0.1-0.1c0,0,0.1,0,0.1,0
				c0.1,0,0.2,0,0.3,0.1C12.8,12.8,12.8,12.9,12.8,13"/>
			<path id="XMLID_1380_" class="st3" d="M14.3,13h-0.1c0,0,0,0-0.1,0c0,0,0,0-0.1,0c0,0,0,0,0,0c0,0,0,0,0,0.1c0,0,0,0.1,0,0.1
				c0,0,0.1,0,0.1,0c0,0,0,0,0,0c0,0,0,0,0,0c0,0,0,0,0,0c0,0,0,0,0,0V13z M14.4,13.3C14.4,13.3,14.4,13.3,14.4,13.3
				C14.4,13.4,14.4,13.4,14.4,13.3c-0.1,0.1-0.1,0.1-0.2,0.1c0,0-0.1,0-0.1,0h-0.1c-0.1,0-0.1,0-0.2,0c0,0-0.1,0-0.1-0.1
				c0,0,0,0,0-0.1c0,0,0-0.1,0-0.1c0,0,0-0.1,0-0.1c0,0,0-0.1,0.1-0.1c0,0,0.1,0,0.1-0.1c0,0,0.1,0,0.1,0h0.2v0c0,0,0,0,0,0
				c0,0,0,0,0,0c0,0,0,0,0,0c0,0,0,0-0.1,0c0,0-0.1,0-0.1,0c0,0-0.1,0-0.1,0c0,0,0,0,0,0c0,0,0,0,0,0l0-0.1c0,0,0,0,0,0
				c0,0,0.1,0,0.1,0c0.1,0,0.1,0,0.1,0c0.1,0,0.2,0,0.2,0.1c0,0,0.1,0.1,0.1,0.2V13.3z"/>
			<path id="XMLID_1377_" class="st3" d="M15.3,13h-0.1c0,0,0,0-0.1,0c0,0,0,0-0.1,0c0,0,0,0,0,0c0,0,0,0,0,0.1c0,0,0,0.1,0,0.1
				c0,0,0.1,0,0.1,0c0,0,0,0,0,0c0,0,0,0,0,0c0,0,0,0,0,0c0,0,0,0,0,0V13z M15.5,13.3C15.5,13.3,15.5,13.3,15.5,13.3
				C15.5,13.4,15.4,13.4,15.5,13.3c-0.1,0.1-0.1,0.1-0.2,0.1c0,0-0.1,0-0.1,0h-0.1c-0.1,0-0.1,0-0.2,0c0,0-0.1,0-0.1-0.1
				c0,0,0,0-0.1-0.1c0,0,0-0.1,0-0.1c0,0,0-0.1,0-0.1c0,0,0-0.1,0.1-0.1c0,0,0.1,0,0.1-0.1c0,0,0.1,0,0.1,0h0.2v0c0,0,0,0,0,0
				c0,0,0,0,0,0c0,0,0,0,0,0c0,0,0,0-0.1,0c0,0-0.1,0-0.1,0c0,0-0.1,0-0.1,0c0,0,0,0,0,0c0,0,0,0,0,0l0-0.1c0,0,0,0,0,0
				c0,0,0.1,0,0.1,0c0.1,0,0.1,0,0.1,0c0.1,0,0.2,0,0.2,0.1c0,0,0.1,0.1,0.1,0.2V13.3z"/>
			<path id="XMLID_1374_" class="st3" d="M16.7,12.8C16.7,12.8,16.6,12.8,16.7,12.8c-0.1,0-0.1,0-0.1,0.1c0,0,0,0,0,0.1
				c0,0,0,0,0,0.1h0.3c0,0,0-0.1,0-0.1c0,0,0,0,0-0.1C16.8,12.8,16.8,12.8,16.7,12.8C16.7,12.8,16.7,12.8,16.7,12.8 M16.7,12.6
				c0.1,0,0.2,0,0.2,0.1c0.1,0.1,0.1,0.1,0.1,0.2c0,0,0,0,0,0.1c0,0,0,0,0,0c0,0,0,0,0,0c0,0,0,0,0,0h-0.4c0,0,0,0.1,0,0.1
				c0,0,0,0,0,0.1c0,0,0,0,0.1,0c0,0,0,0,0.1,0c0,0,0.1,0,0.1,0c0,0,0.1,0,0.1,0c0,0,0,0,0,0l0,0.1c0,0,0,0,0,0c0,0-0.1,0-0.1,0
				c0,0-0.1,0-0.1,0c-0.1,0-0.2,0-0.3-0.1c-0.1-0.1-0.1-0.2-0.1-0.3c0-0.1,0-0.1,0-0.2c0,0,0-0.1,0.1-0.1c0,0,0.1-0.1,0.1-0.1
				C16.6,12.6,16.6,12.6,16.7,12.6"/>
			<path id="XMLID_1371_" class="st3" d="M18.2,13h-0.1c0,0,0,0-0.1,0c0,0,0,0-0.1,0c0,0,0,0,0,0c0,0,0,0,0,0.1c0,0,0,0.1,0,0.1
				c0,0,0.1,0,0.1,0c0,0,0,0,0,0c0,0,0,0,0,0c0,0,0,0,0,0c0,0,0,0,0,0V13z M18.4,13.3C18.4,13.3,18.4,13.3,18.4,13.3
				C18.4,13.4,18.3,13.4,18.4,13.3c-0.1,0.1-0.1,0.1-0.2,0.1c0,0-0.1,0-0.1,0h-0.1c-0.1,0-0.1,0-0.2,0c0,0-0.1,0-0.1-0.1
				c0,0,0,0-0.1-0.1c0,0,0-0.1,0-0.1c0,0,0-0.1,0-0.1c0,0,0-0.1,0.1-0.1c0,0,0.1,0,0.1-0.1c0,0,0.1,0,0.1,0h0.2v0c0,0,0,0,0,0
				c0,0,0,0,0,0c0,0,0,0,0,0c0,0,0,0-0.1,0c0,0-0.1,0-0.1,0c0,0-0.1,0-0.1,0c0,0,0,0,0,0c0,0,0,0,0,0l0-0.1c0,0,0,0,0,0
				c0,0,0.1,0,0.1,0c0,0,0.1,0,0.1,0c0.1,0,0.2,0,0.2,0.1c0,0,0.1,0.1,0.1,0.2V13.3z"/>
			<path id="XMLID_1370_" class="st3" d="M13.8,12.4C13.8,12.4,13.8,12.4,13.8,12.4l-0.4,0c0,0-0.1,0-0.1,0c0,0-0.1,0-0.1,0.1
				c0,0,0,0.1,0,0.1c0,0,0,0.1,0,0.1v0.7c0,0,0,0,0,0c0,0,0,0,0,0h0c0,0,0.1,0,0.1-0.1v-0.3h0.4c0,0,0,0,0,0c0,0,0,0,0,0v-0.1
				c0,0,0,0,0,0c0,0,0,0,0,0h-0.4v-0.2c0,0,0-0.1,0-0.1c0,0,0,0,0.1,0h0.4c0,0,0,0,0,0c0,0,0,0,0,0L13.8,12.4
				C13.8,12.4,13.8,12.4,13.8,12.4"/>
			<path id="XMLID_1367_" class="st3" d="M16.1,13.1C16.1,13.2,16.1,13.2,16.1,13.1C16,13.2,16,13.2,16,13.2c0,0-0.1,0-0.1,0
				c0,0,0,0-0.1,0c0,0,0,0-0.1,0v-0.5c0,0,0.1,0,0.1,0c0,0,0,0,0.1,0c0.1,0,0.1,0,0.1,0.1c0,0,0,0.1,0,0.2
				C16.1,13.1,16.1,13.1,16.1,13.1 M16.3,12.8c0,0,0-0.1-0.1-0.1c0,0-0.1-0.1-0.1-0.1c0,0-0.1,0-0.1,0c0,0-0.1,0-0.1,0
				c0,0-0.1,0-0.1,0v-0.3c0,0,0,0,0,0c0,0,0,0,0,0h0c0,0-0.1,0-0.1,0.1v0.9c0,0,0,0,0,0c0,0,0,0,0,0c0,0,0.1,0,0.1,0
				c0.1,0,0.1,0,0.2,0c0.1,0,0.1,0,0.2,0c0,0,0.1,0,0.1-0.1c0,0,0.1-0.1,0.1-0.1c0-0.1,0-0.1,0-0.2C16.3,12.9,16.3,12.9,16.3,12.8"
				/>
			<path id="XMLID_1366_" class="st3" d="M17.4,13.3L17.4,13.3C17.4,13.3,17.4,13.3,17.4,13.3C17.3,13.3,17.3,13.3,17.4,13.3
				C17.3,13.3,17.3,13.3,17.4,13.3C17.3,13.3,17.3,13.3,17.4,13.3c-0.1-0.1-0.1-0.1-0.1-0.1c0,0,0,0,0,0v-0.8c0,0,0,0,0,0
				c0,0,0,0,0,0h0c0,0-0.1,0-0.1,0.1v0.8c0,0.1,0,0.1,0,0.1c0,0,0.1,0,0.1,0C17.2,13.4,17.3,13.4,17.4,13.3
				C17.3,13.4,17.3,13.4,17.4,13.3C17.4,13.4,17.4,13.4,17.4,13.3C17.4,13.4,17.4,13.4,17.4,13.3"/>
			<path id="XMLID_1365_" class="st3" d="M17.7,13.3L17.7,13.3C17.7,13.3,17.7,13.3,17.7,13.3C17.7,13.3,17.7,13.3,17.7,13.3
				C17.7,13.3,17.7,13.3,17.7,13.3C17.7,13.3,17.7,13.3,17.7,13.3c-0.1-0.1-0.1-0.1-0.1-0.1c0,0,0,0,0,0v-0.8c0,0,0,0,0,0
				c0,0,0,0,0,0h0c0,0-0.1,0-0.1,0.1v0.8c0,0.1,0,0.1,0,0.1c0,0,0.1,0,0.1,0C17.6,13.4,17.6,13.4,17.7,13.3
				C17.7,13.4,17.7,13.4,17.7,13.3C17.7,13.4,17.7,13.4,17.7,13.3C17.7,13.4,17.7,13.4,17.7,13.3"/>
			<path id="XMLID_1364_" class="st3" d="M14.8,13.3L14.8,13.3C14.8,13.3,14.8,13.3,14.8,13.3C14.8,13.3,14.8,13.3,14.8,13.3
				C14.8,13.3,14.8,13.3,14.8,13.3C14.8,13.3,14.8,13.3,14.8,13.3c-0.1-0.1-0.1-0.1-0.1-0.1c0,0,0,0,0,0v-0.8c0,0,0,0,0,0
				c0,0,0,0,0,0h0c0,0-0.1,0-0.1,0.1v0.8c0,0.1,0,0.1,0,0.1c0,0,0.1,0,0.1,0C14.7,13.4,14.7,13.4,14.8,13.3
				C14.8,13.4,14.8,13.4,14.8,13.3C14.8,13.4,14.8,13.4,14.8,13.3C14.8,13.4,14.8,13.4,14.8,13.3"/>
		</g>
	</g>
	<g>
		<g id="XMLID_1355_">
			<polygon id="XMLID_1361_" class="st3" points="83,9.2 83,7.4 77.8,7.4 77.8,13.3 73.9,13.3 73.9,7.4 71.9,7.4 71.9,15.1 
				77.8,15.1 77.8,15.1 83,15.1 83,13.3 79.8,13.3 79.8,12 81.8,12 81.8,10.5 79.8,10.5 79.8,9.2 			"/>
			<polygon id="XMLID_1360_" class="st3" points="62.6,7.4 61.6,7.4 54.6,7.4 54.6,9.1 56.6,9.1 56.6,15.1 58.5,15.1 58.5,9.1 
				61.6,9.1 61.6,12.4 61.6,15 63.6,15 63.6,12.4 63.6,9.1 63.6,9 63.6,7.4 63.6,7.4 			"/>
			<path id="XMLID_1356_" class="st3" d="M70,11.1c0.4-0.3,0.6-0.9,0.6-1.3c0-1.4-1-2.4-2.4-2.4h-3.4v1.5h0v3.7h0V15h3.7
				c1.6,0,2.4-1,2.4-2.3C70.9,12,70.6,11.4,70,11.1z M68,9.1c0.4,0,0.6,0.3,0.6,0.7c0,0.3-0.2,0.6-0.6,0.6h-1.2h0V9.1h0H68z
				 M68.3,13.3h-1.5V12h1.5c0.1,0,0.2,0,0.3,0.1c0.2,0.1,0.3,0.4,0.3,0.6C68.9,13,68.7,13.3,68.3,13.3z"/>
		</g>
		<g id="XMLID_1345_">
			<polygon id="XMLID_1354_" class="st3" points="39.8,7.4 40.5,7.4 40.5,15.1 38.5,15.1 38.5,11.6 36.9,13.3 36.6,13.3 35,11.6 
				35,15.1 33,15.1 33,7.4 33.7,7.4 36.7,10.7 			"/>
			<path id="XMLID_1351_" class="st3" d="M50.2,14.1l-0.4,1h-2.1v-0.3l3.5-7.5h0.9l3.5,7.5v0.3h-2.1l-0.5-1H50.2z M50.8,12.5h1.6
				l-0.8-1.8L50.8,12.5z"/>
			<polygon id="XMLID_1350_" class="st3" points="29.9,7.9 29.9,12.4 29.9,15.1 31.9,15.1 31.9,12.4 31.9,7.4 29.9,7.4 			"/>
			<path id="XMLID_1346_" class="st3" d="M46.7,11.1c0.4-0.3,0.6-0.9,0.6-1.3c0-1.4-1-2.4-2.4-2.4h-3.4v1.3v0.5V15h3.7
				c1.6,0,2.4-1,2.4-2.3C47.6,12,47.3,11.4,46.7,11.1z M43.5,9.1h1.2c0.4,0,0.6,0.3,0.6,0.7c0,0.3-0.2,0.6-0.6,0.6h-1.2L43.5,9.1
				L43.5,9.1z M45.1,13.3h-1.5V12h1.5c0.1,0,0.2,0,0.3,0.1c0.2,0.1,0.3,0.4,0.3,0.6C45.6,13,45.5,13.3,45.1,13.3z"/>
		</g>
	</g>
</g>
</svg>
