<?xml version="1.0" encoding="utf-8"?>
<!-- Generator: Adobe Illustrator 24.0.1, SVG Export Plug-In . SVG Version: 6.00 Build 0)  -->
<svg version="1.1" id="Capa_1" xmlns="http://www.w3.org/2000/svg" xmlns:xlink="http://www.w3.org/1999/xlink" x="0px" y="0px"
	 viewBox="0 0 278.6 60" style="enable-background:new 0 0 278.6 60;" xml:space="preserve">
<style type="text/css">
	.st0{fill:#D80220;}
	.st1{fill:#FFFFFF;}
	.st2{font-family:'Helvetica_cyr-Bold';}
	.st3{font-size:31.1409px;}
	.st4{fill:none;stroke:#DE0423;stroke-width:3;stroke-miterlimit:10;}
	.st5{fill:#DE0423;}
</style>
<polygon class="st0" points="278.6,60 0,60 0,0 255.6,0 278.6,21.1 "/>
<rect x="2.6" y="2.9" class="st1" width="51.6" height="54.2"/>
<text transform="matrix(1 0 0 1 71.437 39.9723)" class="st1 st2 st3">AUN + BAJO</text>
<g>
	<polygon class="st4" points="42.3,26.9 42.3,11.6 14.4,11.6 14.4,26.9 8.6,26.9 28.4,48.3 48.2,26.9 	"/>
	<g>
		<path class="st5" d="M33.6,21c-0.1,0.3-0.4,0.4-0.6,0.4c-0.2,0-0.4-0.1-0.6-0.2c-0.2-0.1-0.5-0.3-0.8-0.4
			c-0.3-0.2-0.7-0.3-1.1-0.4c-0.4-0.1-1-0.2-1.6-0.2c-0.5,0-1,0.1-1.4,0.2c-0.4,0.1-0.8,0.3-1.1,0.5c-0.3,0.2-0.5,0.5-0.7,0.8
			c-0.2,0.3-0.2,0.6-0.2,1c0,0.5,0.1,0.8,0.4,1.1c0.3,0.3,0.6,0.6,1,0.8c0.4,0.2,0.9,0.4,1.5,0.6c0.5,0.2,1.1,0.3,1.7,0.5
			c0.6,0.2,1.1,0.4,1.7,0.6c0.5,0.2,1,0.5,1.5,0.9c0.4,0.3,0.8,0.8,1,1.3c0.3,0.5,0.4,1.1,0.4,1.8c0,0.8-0.1,1.6-0.4,2.2
			c-0.3,0.7-0.7,1.3-1.3,1.8c-0.6,0.5-1.3,0.9-2.1,1.2c-0.8,0.3-1.8,0.4-2.8,0.4c-1.2,0-2.3-0.2-3.3-0.6c-1-0.4-1.8-0.9-2.5-1.5
			l0.7-1.2c0.1-0.2,0.2-0.3,0.3-0.3c0.1-0.1,0.3-0.1,0.5-0.1c0.2,0,0.4,0.1,0.7,0.2c0.2,0.2,0.5,0.3,0.8,0.5
			c0.3,0.2,0.7,0.4,1.2,0.5c0.5,0.2,1.1,0.2,1.8,0.2c0.6,0,1.1-0.1,1.6-0.2c0.4-0.2,0.8-0.4,1.1-0.6c0.3-0.3,0.5-0.6,0.7-0.9
			c0.1-0.3,0.2-0.7,0.2-1.1c0-0.5-0.1-0.9-0.4-1.2c-0.3-0.3-0.6-0.6-1-0.8c-0.4-0.2-0.9-0.4-1.5-0.6c-0.5-0.2-1.1-0.3-1.7-0.5
			c-0.6-0.2-1.1-0.4-1.7-0.6c-0.5-0.2-1-0.5-1.5-0.9c-0.4-0.4-0.8-0.8-1-1.3c-0.3-0.5-0.4-1.2-0.4-1.9c0-0.7,0.1-1.3,0.4-1.9
			c0.3-0.6,0.7-1.2,1.2-1.6c0.5-0.5,1.2-0.8,2-1.1s1.7-0.4,2.6-0.4c1.2,0,2.2,0.2,3.1,0.5c0.9,0.4,1.7,0.9,2.4,1.5L33.6,21z"/>
	</g>
</g>
</svg>
